197
  0.00000000	  0.00000000	  0.00000000
  0.00000000	  1.12246205	  0.00000000
  0.00000000	  2.24492410	  0.00000000
  0.00000000	  3.36738614	  0.00000000
  0.00000000	  4.48984819	  0.00000000
  0.00000000	  5.61231024	  0.00000000
  0.00000000	  6.73477229	  0.00000000
  0.00000000	  7.85723434	  0.00000000
  0.00000000	  8.97969639	  0.00000000
  0.00000000	 10.10215843	  0.00000000
  0.97208065	  0.56123102	  0.00000000
  0.97208065	  1.68369307	  0.00000000
  0.97208065	  2.80615512	  0.00000000
  0.97208065	  3.92861717	  0.00000000
  0.97208065	  5.05107922	  0.00000000
  0.97208065	  6.17354127	  0.00000000
  0.97208065	  7.29600331	  0.00000000
  0.97208065	  8.41846536	  0.00000000
  0.97208065	  9.54092741	  0.00000000
  1.94416130	  0.00000000	  0.00000000
  1.94416130	  1.12246205	  0.00000000
  1.94416130	  2.24492410	  0.00000000
  1.94416130	  3.36738614	  0.00000000
  1.94416130	  4.48984819	  0.00000000
  1.94416130	  5.61231024	  0.00000000
  1.94416130	  6.73477229	  0.00000000
  1.94416130	  7.85723434	  0.00000000
  1.94416130	  8.97969639	  0.00000000
  1.94416130	 10.10215843	  0.00000000
  2.91624195	  0.56123102	  0.00000000
  2.91624195	  1.68369307	  0.00000000
  2.91624195	  2.80615512	  0.00000000
  2.91624195	  3.92861717	  0.00000000
  2.91624195	  5.05107922	  0.00000000
  2.91624195	  6.17354127	  0.00000000
  2.91624195	  7.29600331	  0.00000000
  2.91624195	  8.41846536	  0.00000000
  2.91624195	  9.54092741	  0.00000000
  3.88832259	  0.00000000	  0.00000000
  3.88832259	  1.12246205	  0.00000000
  3.88832259	  2.24492410	  0.00000000
  3.88832259	  3.36738614	  0.00000000
  3.88832259	  4.48984819	  0.00000000
  3.88832259	  5.61231024	  0.00000000
  3.88832259	  6.73477229	  0.00000000
  3.88832259	  7.85723434	  0.00000000
  3.88832259	  8.97969639	  0.00000000
  3.88832259	 10.10215843	  0.00000000
  4.86040324	  0.56123102	  0.00000000
  4.86040324	  1.68369307	  0.00000000
  4.86040324	  2.80615512	  0.00000000
  4.86040324	  3.92861717	  0.00000000
  4.86040324	  5.05107922	  0.00000000
  4.86040324	  6.17354127	  0.00000000
  4.86040324	  7.29600331	  0.00000000
  4.86040324	  8.41846536	  0.00000000
  4.86040324	  9.54092741	  0.00000000
  5.83248389	  0.00000000	  0.00000000
  5.83248389	  1.12246205	  0.00000000
  5.83248389	  2.24492410	  0.00000000
  5.83248389	  3.36738614	  0.00000000
  5.83248389	  4.48984819	  0.00000000
  5.83248389	  5.61231024	  0.00000000
  5.83248389	  6.73477229	  0.00000000
  5.83248389	  7.85723434	  0.00000000
  5.83248389	  8.97969639	  0.00000000
  5.83248389	 10.10215843	  0.00000000
  6.80456454	  0.56123102	  0.00000000
  6.80456454	  1.68369307	  0.00000000
  6.80456454	  2.80615512	  0.00000000
  6.80456454	  3.92861717	  0.00000000
  6.80456454	  5.05107922	  0.00000000
  6.80456454	  6.17354127	  0.00000000
  6.80456454	  7.29600331	  0.00000000
  6.80456454	  8.41846536	  0.00000000
  6.80456454	  9.54092741	  0.00000000
  7.77664519	  3.36738614	  0.00000000
  7.77664519	  4.48984819	  0.00000000
  7.77664519	  5.61231024	  0.00000000
  7.77664519	  6.73477229	  0.00000000
  7.77664519	  7.85723434	  0.00000000
  7.77664519	  8.97969639	  0.00000000
  7.77664519	 10.10215843	  0.00000000
  8.74872584	  0.56123102	  0.00000000
  8.74872584	  1.68369307	  0.00000000
  8.74872584	  2.80615512	  0.00000000
  8.74872584	  3.92861717	  0.00000000
  8.74872584	  5.05107922	  0.00000000
  8.74872584	  6.17354127	  0.00000000
  8.74872584	  7.29600331	  0.00000000
  8.74872584	  8.41846536	  0.00000000
  8.74872584	  9.54092741	  0.00000000
  9.72080649	  0.00000000	  0.00000000
  9.72080649	  1.12246205	  0.00000000
  9.72080649	  2.24492410	  0.00000000
  9.72080649	  3.36738614	  0.00000000
  9.72080649	  4.48984819	  0.00000000
  9.72080649	  5.61231024	  0.00000000
  9.72080649	  6.73477229	  0.00000000
  9.72080649	  7.85723434	  0.00000000
  9.72080649	  8.97969639	  0.00000000
  9.72080649	 10.10215843	  0.00000000
 10.69288713	  0.56123102	  0.00000000
 10.69288713	  1.68369307	  0.00000000
 10.69288713	  2.80615512	  0.00000000
 10.69288713	  3.92861717	  0.00000000
 10.69288713	  5.05107922	  0.00000000
 10.69288713	  6.17354127	  0.00000000
 10.69288713	  7.29600331	  0.00000000
 10.69288713	  8.41846536	  0.00000000
 10.69288713	  9.54092741	  0.00000000
 11.66496778	  0.00000000	  0.00000000
 11.66496778	  1.12246205	  0.00000000
 11.66496778	  2.24492410	  0.00000000
 11.66496778	  3.36738614	  0.00000000
 11.66496778	  4.48984819	  0.00000000
 11.66496778	  5.61231024	  0.00000000
 11.66496778	  6.73477229	  0.00000000
 11.66496778	  7.85723434	  0.00000000
 11.66496778	  8.97969639	  0.00000000
 11.66496778	 10.10215843	  0.00000000
 12.63704843	  0.56123102	  0.00000000
 12.63704843	  1.68369307	  0.00000000
 12.63704843	  2.80615512	  0.00000000
 12.63704843	  3.92861717	  0.00000000
 12.63704843	  5.05107922	  0.00000000
 12.63704843	  6.17354127	  0.00000000
 12.63704843	  7.29600331	  0.00000000
 12.63704843	  8.41846536	  0.00000000
 12.63704843	  9.54092741	  0.00000000
 13.60912908	  0.00000000	  0.00000000
 13.60912908	  1.12246205	  0.00000000
 13.60912908	  2.24492410	  0.00000000
 13.60912908	  3.36738614	  0.00000000
 13.60912908	  4.48984819	  0.00000000
 13.60912908	  5.61231024	  0.00000000
 13.60912908	  6.73477229	  0.00000000
 13.60912908	  7.85723434	  0.00000000
 13.60912908	  8.97969639	  0.00000000
 13.60912908	 10.10215843	  0.00000000
 14.58120973	  0.56123102	  0.00000000
 14.58120973	  1.68369307	  0.00000000
 14.58120973	  2.80615512	  0.00000000
 14.58120973	  3.92861717	  0.00000000
 14.58120973	  5.05107922	  0.00000000
 14.58120973	  6.17354127	  0.00000000
 14.58120973	  7.29600331	  0.00000000
 14.58120973	  8.41846536	  0.00000000
 14.58120973	  9.54092741	  0.00000000
 15.55329038	  0.00000000	  0.00000000
 15.55329038	  1.12246205	  0.00000000
 15.55329038	  2.24492410	  0.00000000
 15.55329038	  3.36738614	  0.00000000
 15.55329038	  4.48984819	  0.00000000
 15.55329038	  5.61231024	  0.00000000
 15.55329038	  6.73477229	  0.00000000
 15.55329038	  7.85723434	  0.00000000
 15.55329038	  8.97969639	  0.00000000
 15.55329038	 10.10215843	  0.00000000
 16.52537103	  0.56123102	  0.00000000
 16.52537103	  1.68369307	  0.00000000
 16.52537103	  2.80615512	  0.00000000
 16.52537103	  3.92861717	  0.00000000
 16.52537103	  5.05107922	  0.00000000
 16.52537103	  6.17354127	  0.00000000
 16.52537103	  7.29600331	  0.00000000
 16.52537103	  8.41846536	  0.00000000
 16.52537103	  9.54092741	  0.00000000
 17.49745168	  0.00000000	  0.00000000
 17.49745168	  1.12246205	  0.00000000
 17.49745168	  2.24492410	  0.00000000
 17.49745168	  3.36738614	  0.00000000
 17.49745168	  4.48984819	  0.00000000
 17.49745168	  5.61231024	  0.00000000
 17.49745168	  6.73477229	  0.00000000
 17.49745168	  7.85723434	  0.00000000
 17.49745168	  8.97969639	  0.00000000
 17.49745168	 10.10215843	  0.00000000
 18.46953232	  0.56123102	  0.00000000
 18.46953232	  1.68369307	  0.00000000
 18.46953232	  2.80615512	  0.00000000
 18.46953232	  3.92861717	  0.00000000
 18.46953232	  5.05107922	  0.00000000
 18.46953232	  6.17354127	  0.00000000
 18.46953232	  7.29600331	  0.00000000
 18.46953232	  8.41846536	  0.00000000
 18.46953232	  9.54092741	  0.00000000
 19.44161297	  0.00000000	  0.00000000
 19.44161297	  1.12246205	  0.00000000
 19.44161297	  2.24492410	  0.00000000
 19.44161297	  3.36738614	  0.00000000
 19.44161297	  4.48984819	  0.00000000
 19.44161297	  5.61231024	  0.00000000
 19.44161297	  6.73477229	  0.00000000
 19.44161297	  7.85723434	  0.00000000
 19.44161297	  8.97969639	  0.00000000
 19.44161297	 10.10215843	  0.00000000
